<svg xmlns="http://www.w3.org/2000/svg" width="28.4" height="31.4" viewBox="0 0 28.4 31.4">
  <g id="Icon_feather-lock" data-name="Icon feather-lock" transform="translate(-3.8 -2.3)">
    <path id="Path_3" data-name="Path 3" d="M7.5,16.5h21a3,3,0,0,1,3,3V30a3,3,0,0,1-3,3H7.5a3,3,0,0,1-3-3V19.5a3,3,0,0,1,3-3Z" fill="none" stroke="#505e6c" stroke-linecap="round" stroke-linejoin="round" stroke-width="1.4"/>
    <path id="Path_4" data-name="Path 4" d="M10.5,16.5v-6a7.5,7.5,0,0,1,15,0v6" fill="none" stroke="#505e6c" stroke-linecap="round" stroke-linejoin="round" stroke-width="1.4"/>
  </g>
</svg>
