<?xml version="1.0" encoding="utf-8"?>
<!-- Generator: Adobe Illustrator 26.0.0, SVG Export Plug-In . SVG Version: 6.00 Build 0)  -->
<svg version="1.1" id="Layer_1" xmlns="http://www.w3.org/2000/svg" xmlns:xlink="http://www.w3.org/1999/xlink" x="0px" y="0px"
	 viewBox="0 0 50 50" style="enable-background:new 0 0 50 50;" xml:space="preserve">
<style type="text/css">
	.st0{fill:#00ABA2;}
	.st1{fill:#FFFFFF;}
	.st2{fill:none;stroke:#FFFFFF;stroke-linejoin:round;}
</style>
<circle class="st0" cx="24.93" cy="25.26" r="24.75"/>
<path class="st1" d="M34.54,26.8c0-2.91,0-5.83,0-8.74c0-0.84,0-1.67-0.01-2.51c0-0.03,0-0.06-0.01-0.09
	c-0.03-0.09-0.06-0.17-0.09-0.26c-0.02-0.06-0.04-0.12-0.06-0.17c0,0,0,0,0,0c-0.04-0.07-0.08-0.14-0.13-0.2
	c-0.02-0.02-0.03-0.05-0.05-0.07c-0.04-0.05-0.07-0.1-0.11-0.13c-0.06-0.05-0.12-0.09-0.18-0.13c-0.05-0.03-0.1-0.08-0.15-0.1
	c-0.07-0.02-0.13-0.09-0.21-0.07c0,0-0.01,0-0.01-0.01c-0.02-0.06-0.07-0.04-0.11-0.04c-0.11,0-0.22,0-0.33,0
	c-4.32,0-8.64,0-12.96,0c-1.51,0-3.02,0-4.52,0.01c-0.08,0-0.16,0.04-0.24,0.06c0,0-0.01,0-0.01,0.01c-0.03,0.07-0.1,0.04-0.15,0.1
	c-0.03,0.04-0.09,0.05-0.13,0.07c0,0-0.01,0-0.01,0.01c-0.02,0.03-0.04,0.07-0.07,0.09c-0.08,0.05-0.15,0.11-0.19,0.2
	c-0.02,0.04-0.05,0.06-0.07,0.1c-0.02,0.03-0.04,0.06-0.05,0.1c-0.02,0.05-0.04,0.11-0.06,0.16c0,0,0,0,0,0
	c-0.05,0.01-0.03,0.05-0.04,0.08c0,0.01,0,0.04-0.01,0.04c-0.06,0.01-0.03,0.07-0.04,0.1c0,0.03-0.01,0.05-0.01,0.08
	c-0.01,0.03-0.03,0.06-0.03,0.1c0,0.15,0,0.29,0,0.44c0,4.35,0,8.7,0,13.05c0,1.5,0,3.01,0,4.51c0,0.1,0.02,0.2,0.05,0.28
	c0.02,0.05,0.04,0.09,0.04,0.15c0,0.01,0.01,0.03,0.01,0.03c0.04,0,0.03,0.04,0.04,0.07c0,0.01,0.01,0.03,0.01,0.04
	c0.04,0.07,0.09,0.14,0.13,0.21c0.01,0.02,0.03,0.03,0.04,0.05c0.02,0.03,0.04,0.06,0.06,0.09c0.02,0.03,0.06,0.04,0.08,0.07
	c0.04,0.09,0.12,0.1,0.18,0.15c0.03,0.03,0.08,0.04,0.12,0.07c0.06,0.03,0.11,0.08,0.17,0.1c0.08,0.02,0.16,0.01,0.23,0.06
	c0.03,0.02,0.09,0.01,0.13,0.01c1.74,0,3.49,0,5.23,0c1.31,0,2.62,0,3.93,0c0.07,0,0.12-0.07,0.19-0.07c0,0,0-0.01,0.01-0.01
	c0.03-0.03,0.06-0.06,0.08-0.09c0.02-0.04,0.06-0.08,0.06-0.12c0.01-0.11,0-0.22,0-0.32c-0.02-0.01-0.03-0.02-0.04-0.03
	c-0.03-0.03-0.06-0.07-0.08-0.11c-0.02-0.05-0.08-0.03-0.1-0.06c-0.04-0.06-0.08-0.04-0.13-0.04c-3.02,0-6.04,0-9.06,0
	c-0.05,0-0.11,0-0.16,0c-0.02,0-0.05,0-0.05-0.01c-0.03-0.07-0.1-0.05-0.15-0.09c-0.04-0.03-0.08-0.06-0.1-0.09
	c-0.04-0.06-0.1-0.1-0.12-0.18c-0.03-0.09-0.08-0.16-0.08-0.26c0-0.09,0-0.18,0-0.27c0-4.58,0-9.16,0-13.75c0-1.24,0-2.49,0-3.73
	c0-0.09,0.06-0.14,0.06-0.23c0,0,0.01-0.01,0.01-0.01c0.03-0.04,0.05-0.08,0.08-0.12c0.02-0.02,0.03-0.04,0.05-0.06
	c0.03-0.03,0.08-0.04,0.09-0.07c0.03-0.07,0.11-0.03,0.13-0.09l11.69-0.03c0.05,0,0.1-0.02,0.15-0.02c0.23,0,0.46,0,0.69,0
	c0.06,0,0.12,0.01,0.18,0.02c0.05,0,0.09-0.01,0.14-0.02c0.06,0,0.12,0,0.19,0c0.19,0.01,0.38,0.01,0.56,0.02
	c0.04,0,0.07-0.01,0.11-0.01c0.02,0,0.04-0.01,0.06-0.01c0.27,0.01,0.54,0.01,0.81,0.02c0.05,0,0.1-0.02,0.15-0.02
	c0.27,0,0.54,0.01,0.81,0.02c0.03,0,0.06-0.01,0.09-0.01c0.27,0,0.55,0,0.82,0c0.04,0,0.08,0.01,0.12,0.01
	c0.06,0,0.13-0.02,0.19-0.02c0.24,0,0.48,0.01,0.72,0.02c0.1,0,0.2,0.02,0.29,0.03c0.01,0,0.02,0,0.03,0.01
	c0.06,0.07,0.16,0.08,0.22,0.16c0.03,0.04,0.08,0.07,0.08,0.13c0,0.01,0,0.02,0.01,0.02c0.05,0.06,0.09,0.12,0.08,0.21
	c0,0.02,0,0.06,0.01,0.07c0.05,0.06,0.03,0.12,0.03,0.19c0,3.63,0,7.25,0,10.88"/>
<path d="M2.54-6.91"/>
<path class="st1" d="M24.76,23.9c-2.41,0-4.81,0-7.22,0c-0.05,0-0.1-0.01-0.16,0c-0.07,0.01-0.12-0.04-0.16-0.09
	c-0.02-0.03-0.06-0.05-0.08-0.08c-0.03-0.05-0.05-0.12-0.05-0.18c-0.01-0.16,0-0.32,0-0.48c0-1.89,0-3.78,0-5.67
	c0-0.09,0.03-0.15,0.06-0.21c0.03-0.07,0.11-0.12,0.17-0.17C17.34,17,17.37,17,17.4,17c1.29,0,2.58,0,3.86,0c3.57,0,7.14,0,10.71,0
	c0.06,0,0.12,0,0.18,0c0.03,0,0.07-0.02,0.08,0.04c0,0.01,0.02,0.01,0.03,0.01c0.06,0.01,0.08,0.07,0.12,0.12
	c0.08,0.13,0.05,0.27,0.05,0.41c0,1.94,0,3.88,0,5.81c0,0.07-0.01,0.15-0.01,0.22c0,0.07-0.05,0.11-0.08,0.16
	c-0.03,0.05-0.07,0.06-0.1,0.08c-0.02,0.02-0.05,0.03-0.08,0.03c-0.42,0-0.84,0.01-1.25,0.01C28.86,23.9,26.81,23.9,24.76,23.9z
	 M31.74,17.86c-4.64,0-9.28,0-13.93,0c0,0.03,0,0.06,0,0.09c0,1.66,0,3.31,0,4.97c0,0.16,0,0.16,0.14,0.16c3.36,0,6.73,0,10.09,0
	c1.18,0,2.37,0,3.55,0c0.13,0,0.15-0.02,0.15-0.17c0-1.65,0-3.3,0-4.95C31.74,17.93,31.74,17.9,31.74,17.86z"/>
<path class="st1" d="M20.75,26.34c-1.09,0-2.18,0-3.27,0c-0.05,0-0.11,0.01-0.16-0.01c-0.05-0.02-0.1-0.05-0.14-0.09
	c-0.05-0.04-0.03-0.11-0.08-0.13c-0.01,0-0.01-0.03-0.01-0.05c0-0.08,0-0.16,0-0.25c0-0.07,0.03-0.13,0.08-0.17
	c0.02-0.01,0.03-0.03,0.05-0.05c0.07-0.1,0.18-0.07,0.27-0.07c0.54-0.01,1.08,0,1.62,0c1.24,0,2.48,0,3.72,0c0.39,0,0.77,0,1.16,0
	c0.07,0,0.13,0,0.2,0.02c0.05,0.01,0.09,0.05,0.12,0.09c0.03,0.03,0.07,0.07,0.06,0.13c0.09,0.09,0.03,0.2,0.04,0.3
	c0,0.03-0.02,0.07-0.04,0.09c-0.05,0.04-0.07,0.1-0.12,0.14c-0.08,0.07-0.16,0.05-0.24,0.05C22.93,26.34,21.84,26.34,20.75,26.34z"
	/>
<path class="st1" d="M20.8,30.66c1.09,0,2.17,0,3.26,0c0.04,0,0.08,0.01,0.12,0c0.08-0.02,0.15,0.05,0.22,0.07
	c0.02,0.01,0.05,0.04,0.05,0.07c0,0.08,0.08,0.12,0.06,0.2c-0.01,0.05,0,0.1,0,0.14c0,0.03,0.01,0.08-0.04,0.09
	c-0.01,0-0.01,0.02-0.01,0.03c-0.01,0.07-0.05,0.13-0.11,0.15c-0.01,0-0.02,0-0.02,0.01c-0.02,0.07-0.07,0.05-0.11,0.05
	c-0.18,0-0.36,0.01-0.54,0.01c-2.06,0-4.12,0-6.18,0c-0.06,0-0.13,0-0.18-0.01c-0.05-0.01-0.09-0.06-0.14-0.09
	c-0.05-0.03-0.04-0.1-0.08-0.13c-0.01-0.01-0.01-0.04-0.01-0.05c0-0.08,0-0.17,0-0.25c0-0.07,0.04-0.12,0.08-0.16
	c0.02-0.02,0.04-0.05,0.06-0.07c0.05-0.05,0.1-0.05,0.15-0.05c0.43,0,0.85,0,1.28,0C19.37,30.66,20.09,30.66,20.8,30.66z"/>
<path class="st1" d="M22.33,28.42c-0.01,0.02-0.03,0.04-0.02,0.06c0.01,0.09-0.04,0.15-0.06,0.22c0,0.01-0.01,0.02-0.01,0.02
	c-0.05,0.03-0.1,0.05-0.14,0.08c-0.08,0.07-0.16,0.04-0.24,0.04c-1.46,0-2.91,0-4.37,0c-0.09,0-0.16-0.03-0.23-0.06
	c-0.04-0.02-0.08-0.08-0.11-0.13c-0.09-0.13-0.04-0.27-0.05-0.41c0.05-0.03,0.03-0.11,0.09-0.14c0.04-0.02,0.07-0.07,0.12-0.09
	c0.03-0.02,0.07-0.02,0.11-0.02c0.52,0,1.04,0,1.57,0c1,0,2,0,3,0c0.08,0,0.14,0.05,0.21,0.08c0.03,0.01,0.05,0.08,0.08,0.11
	C22.32,28.24,22.28,28.35,22.33,28.42z"/>
<path class="st1" d="M25.15,27.99c0.68,0,1.37,0,2.05,0c0.06,0,0.14,0.02,0.18,0.06c0.04,0.05,0.1,0.1,0.12,0.2
	c0.01,0.06,0.05,0.12,0.04,0.19c0,0.03-0.02,0.05-0.03,0.07c-0.01,0.02-0.02,0.03-0.02,0.05c0,0.08-0.05,0.12-0.09,0.17
	c-0.08,0.08-0.16,0.11-0.26,0.11c-1.33,0-2.66,0-3.99,0c-0.08,0-0.16-0.03-0.22-0.07c-0.05-0.03-0.09-0.1-0.12-0.17
	c-0.05-0.09-0.03-0.18-0.04-0.27c0-0.02,0.02-0.04,0.03-0.06c0.01-0.01,0.01-0.03,0.02-0.04c0.01-0.06,0.06-0.08,0.08-0.13
	c0.03-0.07,0.1-0.04,0.13-0.1c0.01-0.01,0.05-0.01,0.07-0.01c0.34,0,0.67,0,1.01,0C24.46,27.99,24.8,27.99,25.15,27.99
	C25.15,27.99,25.15,27.99,25.15,27.99z"/>
<path class="st1" d="M27.06,30.66c0.56,0,1.11,0,1.67,0c0.03,0,0.06,0.01,0.08,0c0.08-0.02,0.15,0.04,0.21,0.07
	c0.02,0.01,0.08,0.05,0.07,0.12c0,0.01,0,0.02,0,0.03c0.08,0.05,0.03,0.14,0.04,0.21c0.01,0.03,0,0.07,0,0.1
	c0,0.02-0.02,0.03-0.03,0.05c0,0.01-0.02,0.01-0.02,0.02c0,0.1-0.07,0.11-0.12,0.16c-0.07,0.07-0.14,0.05-0.21,0.05
	c-1.13,0-2.26,0-3.4,0c-0.05,0-0.11,0-0.16-0.01c-0.04-0.02-0.08-0.05-0.12-0.09c-0.02-0.02-0.04-0.07-0.06-0.08
	C25,31.28,25,31.25,25,31.22c0-0.08,0-0.16,0-0.24c0-0.09,0.04-0.14,0.08-0.21c0.07-0.1,0.15-0.11,0.24-0.11
	C25.9,30.66,26.48,30.66,27.06,30.66C27.06,30.66,27.06,30.66,27.06,30.66z"/>
<path class="st1" d="M26.04,26.34c-0.29,0-0.59,0-0.88,0c-0.07,0-0.12-0.03-0.16-0.1c-0.02-0.03-0.05-0.05-0.07-0.08
	c-0.01-0.01-0.02-0.03-0.02-0.04c0-0.12-0.01-0.24,0-0.36c0-0.04,0.04-0.07,0.06-0.1c0.02-0.03,0.05-0.06,0.08-0.09
	c0.01-0.01,0.04-0.02,0.06-0.02c0.17-0.01,0.34-0.01,0.5-0.02c0.08,0,0.15-0.04,0.23-0.03c0.25,0.06,0.49,0.01,0.74,0.02
	c0.06,0,0.12-0.03,0.17-0.03c0.06,0,0.12,0.04,0.18,0.04c0.07,0,0.11,0.04,0.15,0.1c0.02,0.03,0.05,0.06,0.08,0.08
	c0,0,0.01,0.01,0.01,0.01c-0.01,0.09,0.09,0.16,0.05,0.26c-0.03,0.07-0.02,0.15-0.08,0.2c-0.04,0.04-0.07,0.1-0.12,0.14
	c-0.02,0.02-0.05,0.02-0.07,0.02C26.64,26.34,26.34,26.34,26.04,26.34C26.04,26.34,26.04,26.34,26.04,26.34z"/>
<g id="_307-Email_Add">
	<line class="st2" x1="33.53" y1="29.63" x2="33.53" y2="36.88"/>
	<line class="st2" x1="37.31" y1="33.26" x2="29.75" y2="33.26"/>
</g>
</svg>
